﻿Title: Contact

----

Text: Prenez contact avec nous ou venez par vous, nous sommes heureux de vous aider avec vos préoccupations.

----

Subtitle1: Vous souhaitez

----

Subtitle2: nous parler?

----

Address1header: Baar/Zoug

----

Address2header: Zurich

----

Address1: 

Früebergstrasse 42 
6340 Baar 
Schweiz

----

Address2: 

Pfingstweidstrasse 6 
8005 Zürich 
Suisse

----

Address3header: Genève

----

Address4header: Francfort-sur-le-Main

----

Address3: 

Grand-Rue 19
1204 Genève
Suisse

----

Address4: 

Barckhausstr. 1
60325 Francfort-sur-le-Main
Allemagne

----

Address1contact: Markus Baumgartner

----

Address1phone: +41 44 533 34 07

----

Address2contact: +41 44 533 34 00

----

Address2phone: 

----

Address3contact: Jérome Sicard

----

Address3phone: +41 79 696 15 18

----

Address4contact: Thomas Egger

----

Address4phone: +41 (79) 423 22 28

----

Address5header: Munich

----

Address5: 

Florastrasse 80b
81827 Munich
Allemagne

----

Address5contact: Stefan Riedel

----

Address5phone: +49 (173) 360 2512