﻿Title: Kontakt

----

Text: Nehmen Sie mit uns Kontakt auf oder kommen Sie vorbei, gerne stehen wir Ihnen für Ihr Anliegen zur Verfügung.

----

Subtitle1: Sie wollen

----

Subtitle2: mit uns sprechen?

----

Address1header: Baar/Zug

----

Address2header: Zürich

----

Address1: 

Früebergstrasse 42 
6340 Baar 
Schweiz

----

Address2: 

Pfingstweidstrasse 6 
8005 Zürich 
Schweiz

----

Address3header: Genf

----

Address4header: Frankfurt am Main

----

Address3: 

Grand-Rue 19
1204 Genf
Schweiz

----

Address4: 

Barckhausstr. 1
60325 Frankfurt am Main
Deutschland

----

Address1contact: Markus Baumgartner

----

Address1phone: +41 44 533 34 07

----

Address2contact: +41 44 533 34 00

----

Address2phone: 

----

Address3contact: Jérome Sicard

----

Address3phone: +41 79 696 15 18

----

Address4contact: Thomas Egger

----

Address4phone: +41 (79) 423 22 28

----

Address5header: München

----

Address5: 

Florastrasse 80b
81827 München
Deutschland

----

Address5contact: Stefan Riedel

----

Address5phone: +49 (173) 360 2512